traffic_4road_full.vcd
$date
	Wed Jul 30 20:00:55 2025
$end
$version
	Icarus Verilog
$end
$timescale
	1ps
$end
$scope module tb_traffic_4road_full $end
$var wire 1 ! yellow4 $end
$var wire 1 " yellow3 $end
$var wire 1 # yellow2 $end
$var wire 1 $ yellow1 $end
$var wire 1 % red4 $end
$var wire 1 & red3 $end
$var wire 1 ' red2 $end
$var wire 1 ( red1 $end
$var wire 1 ) green4 $end
$var wire 1 * green3 $end
$var wire 1 + green2 $end
$var wire 1 , green1 $end
$var reg 1 - clk $end
$var reg 1 . reset $end
$scope module uut $end
$var wire 1 - clk $end
$var wire 1 . reset $end
$var parameter 32 / GREEN_TIME $end
$var parameter 32 0 YELLOW_TIME $end
$var reg 2 1 current_road [1:0] $end
$var reg 1 , green1 $end
$var reg 1 + green2 $end
$var reg 1 * green3 $end
$var reg 1 ) green4 $end
$var reg 1 2 phase $end
$var reg 1 ( red1 $end
$var reg 1 ' red2 $end
$var reg 1 & red3 $end
$var reg 1 % red4 $end
$var reg 32 3 timer [31:0] $end
$var reg 1 $ yellow1 $end
$var reg 1 # yellow2 $end
$var reg 1 " yellow3 $end
$var reg 1 ! yellow4 $end
$scope task all_reds $end
$upscope $end
$upscope $end
$upscope $end
$enddefinitions $end
$comment Show the parameter values. $end
$dumpall
b101 0
b10100 /
$end
#0
$dumpvars
b0 3
02
b0 1
1.
0-
1,
0+
0*
0)
0(
1'
1&
1%
0$
0#
0"
0!
$end
#5000
1,
0(
1-
#10000
0-
0.
#15000
b1 3
1-
#20000
0-
#25000
b10 3
1-
#30000
0-
#35000
b11 3
1-
#40000
0-
#45000
b100 3
1-
#50000
0-
#55000
b101 3
1-
#60000
0-
#65000
b110 3
1-
#70000
0-
#75000
b111 3
1-
#80000
0-
#85000
b1000 3
1-
#90000
0-
#95000
b1001 3
1-
#100000
0-
#105000
b1010 3
1-
#110000
0-
#115000
b1011 3
1-
#120000
0-
#125000
b1100 3
1-
#130000
0-
#135000
b1101 3
1-
#140000
0-
#145000
b1110 3
1-
#150000
0-
#155000
b1111 3
1-
#160000
0-
#165000
b10000 3
1-
#170000
0-
#175000
b10001 3
1-
#180000
0-
#185000
b10010 3
1-
#190000
0-
#195000
b10011 3
1-
#200000
0-
#205000
b10100 3
1-
#210000
0-
#215000
12
b0 3
1$
0,
1-
#220000
0-
#225000
b1 3
1-
#230000
0-
#235000
b10 3
1-
#240000
0-
#245000
b11 3
1-
#250000
0-
#255000
b100 3
1-
#260000
0-
#265000
b101 3
1-
#270000
0-
#275000
b1 1
02
b0 3
1,
0$
0(
1-
#280000
0-
#285000
b1 3
1-
#290000
0-
#295000
b10 3
1-
#300000
0-
#305000
b11 3
1-
#310000
0-
#315000
b100 3
1-
#320000
0-
#325000
b101 3
1-
#330000
0-
#335000
b110 3
1-
#340000
0-
#345000
b111 3
1-
#350000
0-
#355000
b1000 3
1-
#360000
0-
#365000
b1001 3
1-
#370000
0-
#375000
b1010 3
1-
#380000
0-
#385000
b1011 3
1-
#390000
0-
#395000
b1100 3
1-
#400000
0-
#405000
b1101 3
1-
#410000
0-
#415000
b1110 3
1-
#420000
0-
#425000
b1111 3
1-
#430000
0-
#435000
b10000 3
1-
#440000
0-
#445000
b10001 3
1-
#450000
0-
#455000
b10010 3
1-
#460000
0-
#465000
b10011 3
1-
#470000
0-
#475000
b10100 3
1-
#480000
0-
#485000
12
b0 3
1#
1-
#490000
0-
#495000
b1 3
1-
#500000
0-
#505000
b10 3
1-
