traffic_4road.vcd
$date
	Wed Jul 30 19:52:36 2025
$end
$version
	Icarus Verilog
$end
$timescale
	1ps
$end
$scope module tb_traffic_4road $end
$var wire 2 ! state [1:0] $end
$var wire 2 " road [1:0] $end
$var reg 1 # clk $end
$var reg 1 $ reset $end
$scope module uut $end
$var wire 1 # clk $end
$var wire 1 $ reset $end
$var parameter 2 % GREEN $end
$var parameter 32 & GREEN_TIME $end
$var parameter 2 ' RED $end
$var parameter 2 ( YELLOW $end
$var parameter 32 ) YELLOW_TIME $end
$var reg 32 * counter [31:0] $end
$var reg 2 + road [1:0] $end
$var reg 2 , state [1:0] $end
$upscope $end
$upscope $end
$enddefinitions $end
$comment Show the parameter values. $end
$dumpall
b11 )
b10 (
b0 '
b1010 &
b1 %
$end
#0
$dumpvars
b1 ,
b0 +
b0 *
1$
0#
b0 "
b1 !
$end
#5000
1#
#10000
0#
0$
#15000
b1 *
1#
#20000
0#
#25000
b10 *
1#
#30000
0#
#35000
b11 *
1#
#40000
0#
#45000
b100 *
1#
#50000
0#
#55000
b101 *
1#
#60000
0#
#65000
b110 *
1#
#70000
0#
#75000
b111 *
1#
#80000
0#
#85000
b1000 *
1#
#90000
0#
#95000
b1001 *
1#
#100000
0#
#105000
b1010 *
1#
#110000
0#
#115000
b10 !
b10 ,
b0 *
1#
#120000
0#
#125000
b1 *
1#
#130000
0#
#135000
b10 *
1#
#140000
0#
#145000
b11 *
1#
#150000
0#
#155000
b1 "
b1 +
b1 !
b1 ,
b0 *
1#
#160000
0#
#165000
b1 *
1#
#170000
0#
#175000
b10 *
1#
#180000
0#
#185000
b11 *
1#
#190000
0#
#195000
b100 *
1#
#200000
0#
#205000
b101 *
1#
