traffic.vcd
$date
	Wed Jul 30 23:15:45 2025
$end
$version
	Icarus Verilog
$end
$timescale
	1ns
$end
$scope module tb_traffic $end
$var wire 1 ! R4_3_yellow $end
$var wire 1 " R4_3_red $end
$var wire 1 # R4_3_green $end
$var wire 1 $ R4_2_yellow $end
$var wire 1 % R4_2_red $end
$var wire 1 & R4_2_green $end
$var wire 1 ' R4_1_yellow $end
$var wire 1 ( R4_1_red $end
$var wire 1 ) R4_1_green $end
$var wire 1 * R3_4_yellow $end
$var wire 1 + R3_4_red $end
$var wire 1 , R3_4_green $end
$var wire 1 - R3_2_yellow $end
$var wire 1 . R3_2_red $end
$var wire 1 / R3_2_green $end
$var wire 1 0 R3_1_yellow $end
$var wire 1 1 R3_1_red $end
$var wire 1 2 R3_1_green $end
$var wire 1 3 R2_4_yellow $end
$var wire 1 4 R2_4_red $end
$var wire 1 5 R2_4_green $end
$var wire 1 6 R2_3_yellow $end
$var wire 1 7 R2_3_red $end
$var wire 1 8 R2_3_green $end
$var wire 1 9 R2_1_yellow $end
$var wire 1 : R2_1_red $end
$var wire 1 ; R2_1_green $end
$var wire 1 < R1_4_yellow $end
$var wire 1 = R1_4_red $end
$var wire 1 > R1_4_green $end
$var wire 1 ? R1_3_yellow $end
$var wire 1 @ R1_3_red $end
$var wire 1 A R1_3_green $end
$var wire 1 B R1_2_yellow $end
$var wire 1 C R1_2_red $end
$var wire 1 D R1_2_green $end
$var reg 1 E clk $end
$var reg 1 F reset $end
$scope module uut $end
$var wire 1 E clk $end
$var wire 1 F reset $end
$var parameter 32 G BUF1 $end
$var parameter 32 H BUF2 $end
$var parameter 32 I BUF3 $end
$var parameter 32 J BUF4 $end
$var parameter 32 K PH1_G $end
$var parameter 32 L PH1_Y $end
$var parameter 32 M PH2_G $end
$var parameter 32 N PH2_Y $end
$var parameter 32 O PH3_G $end
$var parameter 32 P PH3_Y $end
$var parameter 32 Q PH4_G $end
$var parameter 32 R PH4_Y $end
$var parameter 32 S T_BUF $end
$var parameter 32 T T_GREEN $end
$var parameter 32 U T_YELLOW $end
$var reg 1 D R1_2_green $end
$var reg 1 C R1_2_red $end
$var reg 1 B R1_2_yellow $end
$var reg 1 A R1_3_green $end
$var reg 1 @ R1_3_red $end
$var reg 1 ? R1_3_yellow $end
$var reg 1 > R1_4_green $end
$var reg 1 = R1_4_red $end
$var reg 1 < R1_4_yellow $end
$var reg 1 ; R2_1_green $end
$var reg 1 : R2_1_red $end
$var reg 1 9 R2_1_yellow $end
$var reg 1 8 R2_3_green $end
$var reg 1 7 R2_3_red $end
$var reg 1 6 R2_3_yellow $end
$var reg 1 5 R2_4_green $end
$var reg 1 4 R2_4_red $end
$var reg 1 3 R2_4_yellow $end
$var reg 1 2 R3_1_green $end
$var reg 1 1 R3_1_red $end
$var reg 1 0 R3_1_yellow $end
$var reg 1 / R3_2_green $end
$var reg 1 . R3_2_red $end
$var reg 1 - R3_2_yellow $end
$var reg 1 , R3_4_green $end
$var reg 1 + R3_4_red $end
$var reg 1 * R3_4_yellow $end
$var reg 1 ) R4_1_green $end
$var reg 1 ( R4_1_red $end
$var reg 1 ' R4_1_yellow $end
$var reg 1 & R4_2_green $end
$var reg 1 % R4_2_red $end
$var reg 1 $ R4_2_yellow $end
$var reg 1 # R4_3_green $end
$var reg 1 " R4_3_red $end
$var reg 1 ! R4_3_yellow $end
$var reg 8 V counter [7:0] $end
$var reg 8 W limit [7:0] $end
$var reg 4 X state [3:0] $end
$upscope $end
$upscope $end
$enddefinitions $end
$comment Show the parameter values. $end
$dumpall
b1111 U
b110010 T
b1010 S
b1010 R
b1001 Q
b111 P
b110 O
b100 N
b11 M
b1 L
b0 K
b1011 J
b1000 I
b101 H
b10 G
$end
#0
$dumpvars
b10 X
bx W
b0 V
1F
0E
0D
1C
0B
0A
1@
0?
0>
1=
0<
0;
1:
09
08
17
06
05
14
03
02
11
00
0/
1.
0-
0,
1+
0*
0)
1(
0'
0&
1%
0$
0#
1"
0!
$end
#5
1E
#10
0E
#15
1E
#20
0E
0F
#25
b1 V
b1010 W
1E
#30
0E
#35
b10 V
1E
#40
0E
#45
b11 V
1E
#50
0E
#55
b100 V
1E
#60
0E
#65
b101 V
1E
#70
0E
#75
b110 V
1E
#80
0E
#85
b111 V
1E
#90
0E
#95
b1000 V
1E
#100
0E
#105
b1001 V
1E
#110
0E
#115
01
12
0=
1>
b11 X
b0 V
1E
#120
0E
#125
b1 V
b110010 W
1E
#130
0E
#135
b10 V
1E
#140
0E
#145
b11 V
1E
#150
0E
#155
b100 V
1E
#160
0E
#165
b101 V
1E
#170
0E
#175
b110 V
1E
#180
0E
#185
b111 V
1E
#190
0E
#195
b1000 V
1E
#200
0E
#205
b1001 V
1E
#210
0E
#215
b1010 V
1E
#220
0E
#225
b1011 V
1E
#230
0E
#235
b1100 V
1E
#240
0E
#245
b1101 V
1E
#250
0E
#255
b1110 V
1E
#260
0E
#265
b1111 V
1E
#270
0E
#275
b10000 V
1E
#280
0E
#285
b10001 V
1E
#290
0E
#295
b10010 V
1E
#300
0E
#305
b10011 V
1E
#310
0E
#315
b10100 V
1E
#320
0E
#325
b10101 V
1E
#330
0E
#335
b10110 V
1E
#340
0E
#345
b10111 V
1E
#350
0E
#355
b11000 V
1E
#360
0E
#365
b11001 V
1E
#370
0E
#375
b11010 V
1E
#380
0E
#385
b11011 V
1E
#390
0E
#395
b11100 V
1E
#400
0E
#405
b11101 V
1E
#410
0E
#415
b11110 V
1E
#420
0E
#425
b11111 V
1E
#430
0E
#435
b100000 V
1E
#440
0E
#445
b100001 V
1E
#450
0E
#455
b100010 V
1E
#460
0E
#465
b100011 V
1E
#470
0E
#475
b100100 V
1E
#480
0E
#485
b100101 V
1E
#490
0E
#495
b100110 V
1E
#500
0E
#505
b100111 V
1E
#510
0E
#515
b101000 V
1E
#520
0E
#525
b101001 V
1E
#530
0E
#535
b101010 V
1E
#540
0E
#545
b101011 V
1E
#550
0E
#555
b101100 V
1E
#560
0E
#565
b101101 V
1E
#570
0E
#575
b101110 V
1E
#580
0E
#585
b101111 V
1E
#590
0E
#595
b110000 V
1E
#600
0E
#605
b110001 V
1E
#610
0E
#615
10
1<
0>
02
0=
01
b100 X
b0 V
1E
#620
0E
#625
b1 V
b1111 W
1E
#630
0E
#635
b10 V
1E
#640
0E
#645
b11 V
1E
#650
0E
#655
b100 V
1E
#660
0E
#665
b101 V
1E
#670
0E
#675
b110 V
1E
#680
0E
#685
b111 V
1E
#690
0E
#695
b1000 V
1E
#700
0E
#705
b1001 V
1E
#710
0E
#715
b1010 V
1E
#720
0E
#725
b1011 V
1E
#730
0E
#735
b1100 V
1E
#740
0E
#745
b1101 V
1E
#750
0E
#755
b1110 V
1E
#760
0E
#765
0<
00
1=
11
b101 X
b0 V
1E
#770
0E
#775
b1 V
b1010 W
1E
#780
0E
#785
b10 V
1E
#790
0E
#795
b11 V
1E
#800
0E
#805
b100 V
1E
#810
0E
#815
b101 V
1E
#820
0E
#825
b110 V
1E
#830
0E
#835
b111 V
1E
#840
0E
#845
b1000 V
1E
#850
0E
#855
b1001 V
1E
#860
0E
#865
0"
1#
0(
1)
04
15
07
18
b110 X
b0 V
1E
#870
0E
#875
b1 V
b110010 W
1E
#880
0E
#885
b10 V
1E
#890
0E
#895
b11 V
1E
#900
0E
#905
b100 V
1E
#910
0E
#915
b101 V
1E
#920
0E
#925
b110 V
1E
#930
0E
#935
b111 V
1E
#940
0E
#945
b1000 V
1E
#950
0E
#955
b1001 V
1E
#960
0E
#965
b1010 V
1E
#970
0E
#975
b1011 V
1E
#980
0E
#985
b1100 V
1E
#990
0E
#995
b1101 V
1E
#1000
0E
#1005
b1110 V
1E
#1010
0E
#1015
b1111 V
1E
